<?xml version="1.0" encoding="UTF-8" standalone="no"?>
<!-- Created with Inkscape (http://www.inkscape.org/) -->

<svg
   xmlns:dc="http://purl.org/dc/elements/1.1/"
   xmlns:cc="http://creativecommons.org/ns#"
   xmlns:rdf="http://www.w3.org/1999/02/22-rdf-syntax-ns#"
   xmlns:svg="http://www.w3.org/2000/svg"
   xmlns="http://www.w3.org/2000/svg"
   xmlns:sodipodi="http://sodipodi.sourceforge.net/DTD/sodipodi-0.dtd"
   xmlns:inkscape="http://www.inkscape.org/namespaces/inkscape"
   version="1.1"
   id="svg24"
   width="921"
   height="782"
   viewBox="0 0 921 782"
   sodipodi:docname="Yerrabi_logo.svg"
   inkscape:version="0.92.3 (2405546, 2018-03-11)">
  <metadata
     id="metadata30">
    <rdf:RDF>
      <cc:Work
         rdf:about="">
        <dc:format>image/svg+xml</dc:format>
        <dc:type
           rdf:resource="http://purl.org/dc/dcmitype/StillImage" />
        <dc:title></dc:title>
      </cc:Work>
    </rdf:RDF>
  </metadata>
  <defs
     id="defs28" />
  <sodipodi:namedview
     pagecolor="#ffffff"
     bordercolor="#666666"
     borderopacity="1"
     objecttolerance="10"
     gridtolerance="10"
     guidetolerance="10"
     inkscape:pageopacity="0"
     inkscape:pageshadow="2"
     inkscape:window-width="1920"
     inkscape:window-height="1017"
     id="namedview26"
     showgrid="false"
     inkscape:zoom="1.2071611"
     inkscape:cx="491.19581"
     inkscape:cy="541.90866"
     inkscape:window-x="-8"
     inkscape:window-y="-8"
     inkscape:window-maximized="1"
     inkscape:current-layer="svg24" />
  <path
     style="fill:#000000"
     d="m 177.18644,770.00102 c -5.5,-2.65274 -16.3,-6.99208 -24,-9.64299 -20.0557,-6.90464 -65.94216,-31.32654 -83.96225,-44.68678 -5.18724,-3.84585 7.43479,-9.51275 42.46225,-19.06422 129.44116,-35.29667 220.18785,-136.43291 262.93165,-293.03469 17.7602,-65.06849 18.5646,-90.3109 4.5147,-141.67029 -8.9879,-32.85494 0.7446,-57.00443 31.0717,-77.09891 50.9711,-33.77306 77.6108,-36.88183 103.0874,-12.03002 12.4411,12.13599 12.3372,21.74846 -1.1694,108.22688 -3.5649,22.825 -7.155,45.40748 -7.978,50.18328 -1.1244,6.52478 -1.242,9.81862 -0.4729,13.25053 0.685,3.05649 0.7032,8.21747 0.055,15.60247 -1.8153,20.6869 1.8826,30.81516 24.997,68.46372 43.7649,71.28424 87.1986,178.67287 95.451,236 1.0613,7.37252 2.1026,11.39267 3.1577,12.19075 4.5953,3.4759 26.2621,5.61793 43.0428,4.2553 11.471,-0.93147 19.1716,-2.08152 43.3112,-6.46836 22.5219,-4.09286 21.7803,1.02548 -1.5,10.35297 -8.25,3.30544 -20.4,8.23445 -27,10.95336 -42.9365,17.68794 -85.4252,15.78202 -84.6748,-3.79826 0.602,-15.70694 -3.244,-49.46819 -8.4853,-74.48576 -7.2226,-34.47534 -39.9809,-108.81946 -62.1288,-141 -14.5521,-21.14391 -47.8554,-57.2374 -54.9832,-59.58979 -13.3845,-4.41729 -37.7625,14.5945 -64.869,50.58979 -11.8221,15.69876 -23.4045,33.64759 -40.654,63 -44.7188,76.09517 -75.1849,102.45187 -178.20495,154.16753 -25.85,12.97661 -48.88396,24.68606 -51.18658,26.02101 -4.18658,2.42717 -4.18658,2.42717 9.5,14.23779 23.48643,20.26724 39.06344,38.20797 40.82609,47.0212 0.84425,4.22129 -0.88177,3.96559 -13.13951,-1.94651 z M 652.88329,653.69084 c 72.3789,-158.7036 125.6081,-286.84276 154.3864,-371.65621 10.8523,-31.98319 10.9063,-29.15439 -0.4592,-24.03679 -54.7028,24.63136 -149.153,44.11571 -182.7721,37.70447 -32.6855,-6.23322 -65.8909,-36.24871 -95.3635,-86.20231 -2.8813,-4.88347 -2.2603,-4.43694 10.9673,7.88625 28.0694,26.15026 43.8056,33.44803 100.0443,46.3964 22.64,5.21263 68.0559,3.33727 107,-4.41837 27.4069,-5.45804 68.2731,-16.63625 73.7446,-20.17149 1.5982,-1.03262 21.0037,-63.25256 34.7796,-111.51392 3.3243,-11.64619 36.9455,-69.542504 39.1209,-67.367044 1.0356,1.03559 -18.1179,63.659464 -37.6771,123.188174 -15.0657,45.85295 -15.7481,48.09759 -14.363,47.24873 0.4922,-0.30169 7.645,-3.56793 15.895,-7.25832 8.25,-3.69039 17.3625,-7.77976 20.25,-9.08749 2.8875,-1.30774 5.25,-2.2095 5.25,-2.00392 0,0.55563 -22.8892,15.43845 -35.4763,23.06711 -10.9763,6.65238 -10.9763,6.65238 -20.2921,33.84314 -38.2793,111.72896 -89.6585,251.15663 -111.8844,303.62024 -21.8436,51.56125 -45.8942,85.10418 -66.6894,93.01051 -2.3372,0.88857 -2.1375,0.19763 3.539,-12.24916 z M 60.18644,470.43844 c 23.71312,-6.70748 95.12755,-49.73677 130.17942,-74.65989 42.85639,-30.4724 74.65712,-61.89019 151.25743,-149.77855 19.3292,-22.17766 19.1079,-22.00986 12.5328,-9.5 -77.6547,147.74813 -156.50469,211.75895 -289.44438,234.97247 -18.55395,3.23983 -19.15179,3.10322 -4.52527,-1.03403 z M 412.14609,128.58407 c -18.4809,-2.94555 -27.4257,-7.88843 -33.6003,-18.56741 -2.0508,-3.54678 -5.4794,-8.48897 -7.6193,-10.982674 -10.9858,-12.80229 -10.2075,-18.36894 6.5757,-47.0333 22.6888,-38.75044 31.2014,-43.6942296 73.6062,-42.7475296 60.3511,1.3473696 82.3496,19.7987496 71.8286,60.2468396 -8.1297,31.254954 -27.569,55.232404 -47.8794,59.056824 -8.6162,1.62244 -52.783,1.64157 -62.9115,0.0273 z"
     id="path34"
     inkscape:connector-curvature="0"
     sodipodi:nodetypes="cscsscsssscccsssssscccscsscsccccssscssscccccscscssccssccssccccscccc" />
</svg>
